nama aksara,Loop,loop atas,loop bawah,garis atas,garis bawah,lengkung atas,Jumlah Loop pada Gambar,Jumlah Loop pada Segmen Atas,Jumlah Loop pada Segmen Bawah,Jumlah Line pada Segmen Atas,"Koordinat titik ujung garis (x1,y1,x2,y2)","Rho, theta",Jumlah Line pada Segmen Bawah,"Koordinat titik ujung garis (x1,y1,x2,y2)","Rho, theta",Jumlah Curve pada Segmen Atas,"Koordinat vertex, sudut orientasi (Xo,Yo,Theta)",Jumlah Curve pada Segmen Bawah,"Koordinat vertex, sudut orientasi (Xo,Yo,Theta)"
ha,0,0,0,7,6,3,1
na,1,0,1,6,6,2,1
ca,1,0,1,6,5,2,2
ra,0,0,0,4,2,2,0
ka,1,0,1,7,5,3,1
da,1,0,1,6,5,2,2
ta,0,0,0,7,6,3,1
sa,1,0,1,6,5,2,2
wa,0,0,0,6,5,2,1
la,0,0,0,7,6,3,1
pa,0,0,0,6,5,2,1
dha,0,0,0,6,5,2,2
ja,1,1,0,6,5,2,1
ya,0,0,0,9,8,3,2
nya,0,0,1,9,5,5,1
ma,0,0,0,7,5,3,1
ga,0,0,0,5,3,3,0
ba,0,0,0,6,4,3,1
tha,1,0,1,5,4,3,1
nga,0,0,0,5,3,3,1
pasangan ha,0,0,0,3,4,2,1
pasangan na,1,0,0,3,2,1,1
pasangan ca,0,0,0,4,6,1,2
pasangan ra,0,0,0,4,2,2,0
pasangan ka,1,0,0,7,6,3,1
pasangan da,0,0,0,1,1,0,0
pasangan ta,0,0,0,6,6,2,1
pasangan sa,1,1,0,3,3,1,1
pasangan wa,0,0,0,1,1,1,1
pasangan la,0,0,0,4,4,2,1
pasangan pa,0,0,0,3,3,1,2
pasangan dha,0,0,0,2,4,0,2
pasangan ja,0,0,0,2,4,0,1
pasangan ya,0,0,0,9,8,3,2
pasangan nya,1,0,0,3,3,1,1
pasangan ma,0,0,0,2,2,1,1
pasangan ga,0,0,0,4,3,3,0
pasangan ba,1,0,1,4,5,2,2
pasangan tha,1,0,1,2,3,0,3
pasangan nga,0,0,0,6,4,2,2
adeg-adeg,0,0,0,2,2,0,0
cakra,0,0,0,2,1,2,1
cecek,0,0,0,1,1,0,0
cekre,1,1,1,3,2,2,2
layar,0,0,0,1,1,0,0
pangkon,0,0,0,3,3,1,1
pengkal,0,0,0,3,4,1,1
pepet,1,0,0,2,2,1,1
suku,0,0,0,2,2,0,1
taling,0,0,0,4,3,2,0
tarung,0,0,0,2,2,1,1
wulu,1,0,0,2,2,1,1
